50	83.0	198.4	181.0	188.1	120.3	145.6	196.1
100	88.6	287.8	221.6	239.3	111.5	161.5	232.7
150	97.0	288.1	225.7	483.3	139.9	233.4	447.5
200	119.2	354.9	479.2	526.6	204.4	466.6	520.4
250	161.1	312.1	528.4	515.6	297.6	482.8	492.4
300	217.0	359.3	440.9	443.7	459.9	494.1	525.8
350	450.9	361.5	471.4	496.1	464.3	480.8	532.9
400	473.7	481.6	525.0	472.7	465.8	466.8	568.7
450	464.7	497.8	539.6	559.0	511.1	514.2	568.7
500	472.3	499.6	555.9	535.2	516.3	559.6	566.3
